Problem,Description
Lack water for domestic use,The water in the stream is not sufficient or the reservoir is too small to provide sufficient water for the whole village. This requires additional work to women and children to carry water
Livestock diseases,Animal diseases cause large economic losses in the village
Market price fluctuations,High price fluctuations and absence of information about prices put local villagers in a weak position to bargain with traders and private companies
Forest resources are degraded,"Deforestation, forest degradation, NTFP are getting more scarce because of non-sustainable forest management practices"
Livestock damages on crops,Fences are not strong enough. Interest in setting up permanent fences with barbed wire
Yield decrease,Shortening of fallow periods. Land degradation leads to decreasing productivity of upland rice systems which threat food security
Contract breaking,Traders don’t come to buy agricultural products according to agreed conditions in farming contracts
Too many children,"Women complain that they have too many children who generate increasing expenses for education as they study longer than before and do not help anymore with the farm activities, therefore increasing the number of mouths to feed while increasing the youth dependency ratio (i.e. number of dependent children per adult). Old generation women used to have 7 to 8 children while new generation have 4 to 5 children"
Livestock feed,Large livestock does not have enough grass to eat during dry season. No livestock area. Get thin and are sold at low price
Access to credit,"Request credit support, e.g. to buy large livestock because villagers do not have enough capital to invest themselves"
Roads to production areas,Villagers would like to expand the village road network seen as a constraint of agricultural expansion
Lack irrigation system,"Would like to get more irrigation water to intensify cropping systems during the dry season (e.g. winter vegetable, spring rice)"
Labor requirement peaks,Not enough labor force to harvest rice in time. Young people go to work in towns. Would like to get rice harvester machine to speed up the harvest and avoid losses by rats and birds
Information sharing,Lack village office facilities. Would like to get village loudspeaker for communication and information sharing in the village
"Sanitation, toilets","Lack sanitation facilities, e.g. the latrines are full. Would need equipment to empty them"
Market place – economic opportunities,Would like to get more permanent market place to provide opportunity for villagers to sell their products
No electricity,No connection to the national electricity grid
Education - school,"Not enough teachers or education facilities, long distance walk to go to school"
Pest damages to crops,"Rats eat maize and rice seeds, locust and grasshoppers eat crops"
Natural disasters,Floods droughts
Human health,"No health station in the village, long distance to the nearest health station"
Lack technical knowledge,Lack technical knowledge to improve agricultural productivity or diversify activities
