name;text
landcoverImageText;landcoverImageText
textVacc;textVacc
textAnimals;textAnimals
textHouse;textHouse
textDistances;textDistances
textPopuGeneInfos;textPopuGeneInfos
textEthnies;textEthnies
textIncome;textIncome
textEduc;textEduc
textLivelihood;textLivelihood
textVulnerability;textVulnerability
textLandUse;textLandUse
textLandCover;textLandCover
textAge;textAge
textAssets;textAssets
textAgriIncome;textAgriIncome
textRice;textRice